<ListRecords>
<record>
<header>
<identifier>oai:arXiv.org:0704.1643</identifier>
<datestamp>2015-01-06</datestamp>
<setSpec>math</setSpec>
</header>
<metadata>
<arXiv xmlns="http://arxiv.org/OAI/arXiv/" xmlns:xsi="http://www.w3.org/2001/XMLSchema-instance" xsi:schemaLocation="http://arxiv.org/OAI/arXiv/ http://arxiv.org/OAI/arXiv.xsd">
<id>0704.1643</id>
<created>2007-04-12</created>
<authors>
<author>
<keyname>Adamczak</keyname>
<forenames>Radosław</forenames>
</author>
<author>
<keyname>Latała</keyname>
<forenames>Rafał</forenames>
</author>
</authors>
<title>The LIL for $U$-statistics in Hilbert spaces</title>
<categories>math.PR</categories>
<msc-class>60F15, 60E15</msc-class>
<journal-ref>J. Theoret. Probab. 21 (2008), 704-744</journal-ref>
<doi>10.1007/s10959-007-0134-6</doi>
<abstract>
We give necessary and sufficient conditions for the (bounded) law of the iterated logarithm for $U$-statistics in Hilbert spaces. As a tool we also develop moment and tail estimates for canonical Hilbert-space valued $U$-statistics of arbitrary order, which are of independent interest.
</abstract>
</arXiv>
</metadata>
</record>
<record>
<header>
<identifier>oai:arXiv.org:0704.1643</identifier>
<datestamp>2015-01-06</datestamp>
<setSpec>math</setSpec>
</header>
<metadata>
<arXiv xmlns="http://arxiv.org/OAI/arXiv/" xmlns:xsi="http://www.w3.org/2001/XMLSchema-instance" xsi:schemaLocation="http://arxiv.org/OAI/arXiv/ http://arxiv.org/OAI/arXiv.xsd">
<id>0704.1643</id>
<created>2007-04-12</created>
<authors>
<author>
<keyname>Adamczak</keyname>
<forenames>Radosław</forenames>
</author>
<author>
<keyname>Latała</keyname>
<forenames>Rafał</forenames>
</author>
</authors>
<title>The LIL for $U$-statistics in Hilbert spaces</title>
<categories>math.PR</categories>
<msc-class>60F15, 60E15</msc-class>
<journal-ref>J. Theoret. Probab. 21 (2008), 704-744</journal-ref>
<doi>10.1007/s10959-007-0134-6</doi>
<abstract>
We give necessary and sufficient conditions for the (bounded) law of the iterated logarithm for $U$-statistics in Hilbert spaces. As a tool we also develop moment and tail estimates for canonical Hilbert-space valued $U$-statistics of arbitrary order, which are of independent interest.
</abstract>
</arXiv>
</metadata>
</record>
<record>
<header>
<identifier>oai:arXiv.org:0704.1643</identifier>
<datestamp>2015-01-06</datestamp>
<setSpec>math</setSpec>
</header>
<metadata>
<arXiv xmlns="http://arxiv.org/OAI/arXiv/" xmlns:xsi="http://www.w3.org/2001/XMLSchema-instance" xsi:schemaLocation="http://arxiv.org/OAI/arXiv/ http://arxiv.org/OAI/arXiv.xsd">
<id>0704.1643</id>
<created>2007-04-12</created>
<authors>
<author>
<keyname>Adamczak</keyname>
<forenames>Radosław</forenames>
</author>
<author>
<keyname>Latała</keyname>
<forenames>Rafał</forenames>
</author>
</authors>
<title>The LIL for $U$-statistics in Hilbert spaces</title>
<categories>math.PR</categories>
<msc-class>60F15, 60E15</msc-class>
<journal-ref>J. Theoret. Probab. 21 (2008), 704-744</journal-ref>
<doi>10.1007/s10959-007-0134-6</doi>
<abstract>
We give necessary and sufficient conditions for the (bounded) law of the iterated logarithm for $U$-statistics in Hilbert spaces. As a tool we also develop moment and tail estimates for canonical Hilbert-space valued $U$-statistics of arbitrary order, which are of independent interest.
</abstract>
</arXiv>
</metadata>
</record>
<record>
<header>
<identifier>oai:arXiv.org:0704.1643</identifier>
<datestamp>2015-01-06</datestamp>
<setSpec>math</setSpec>
</header>
<metadata>
<arXiv xmlns="http://arxiv.org/OAI/arXiv/" xmlns:xsi="http://www.w3.org/2001/XMLSchema-instance" xsi:schemaLocation="http://arxiv.org/OAI/arXiv/ http://arxiv.org/OAI/arXiv.xsd">
<id>0704.1643</id>
<created>2007-04-12</created>
<authors>
<author>
<keyname>Adamczak</keyname>
<forenames>Radosław</forenames>
</author>
<author>
<keyname>Latała</keyname>
<forenames>Rafał</forenames>
</author>
</authors>
<title>The LIL for $U$-statistics in Hilbert spaces</title>
<categories>math.PR</categories>
<msc-class>60F15, 60E15</msc-class>
<journal-ref>J. Theoret. Probab. 21 (2008), 704-744</journal-ref>
<doi>10.1007/s10959-007-0134-6</doi>
<abstract>
We give necessary and sufficient conditions for the (bounded) law of the iterated logarithm for $U$-statistics in Hilbert spaces. As a tool we also develop moment and tail estimates for canonical Hilbert-space valued $U$-statistics of arbitrary order, which are of independent interest.
</abstract>
</arXiv>
</metadata>
</record>
<record>
<header>
<identifier>oai:arXiv.org:0704.1643</identifier>
<datestamp>2015-01-06</datestamp>
<setSpec>math</setSpec>
</header>
<metadata>
<arXiv xmlns="http://arxiv.org/OAI/arXiv/" xmlns:xsi="http://www.w3.org/2001/XMLSchema-instance" xsi:schemaLocation="http://arxiv.org/OAI/arXiv/ http://arxiv.org/OAI/arXiv.xsd">
<id>0704.1643</id>
<created>2007-04-12</created>
<authors>
<author>
<keyname>Adamczak</keyname>
<forenames>Radosław</forenames>
</author>
<author>
<keyname>Latała</keyname>
<forenames>Rafał</forenames>
</author>
</authors>
<title>The LIL for $U$-statistics in Hilbert spaces</title>
<categories>math.PR</categories>
<msc-class>60F15, 60E15</msc-class>
<journal-ref>J. Theoret. Probab. 21 (2008), 704-744</journal-ref>
<doi>10.1007/s10959-007-0134-6</doi>
<abstract>
We give necessary and sufficient conditions for the (bounded) law of the iterated logarithm for $U$-statistics in Hilbert spaces. As a tool we also develop moment and tail estimates for canonical Hilbert-space valued $U$-statistics of arbitrary order, which are of independent interest.
</abstract>
</arXiv>
</metadata>
</record>
<record>
<header>
<identifier>oai:arXiv.org:0706.0001</identifier>
<datestamp>2015-01-20</datestamp>
<setSpec>math</setSpec>
</header>
<metadata>
<arXiv xmlns="http://arxiv.org/OAI/arXiv/" xmlns:xsi="http://www.w3.org/2001/XMLSchema-instance" xsi:schemaLocation="http://arxiv.org/OAI/arXiv/ http://arxiv.org/OAI/arXiv.xsd">
<id>0706.0001</id>
<created>2007-06-01</created>
<updated>2008-06-01</updated>
<authors>
<author>
<keyname>Tu</keyname>
<forenames>Z. C.</forenames>
</author>
<author>
<keyname>Ou-Yang</keyname>
<forenames>Z. C.</forenames>
</author>
</authors>
<title>
Elastic theory of low-dimensional continua and its applications in bio- and nano-structures
</title>
<categories>
cond-mat.soft cond-mat.mtrl-sci math-ph math.MP physics.bio-ph q-bio.QM
</categories>
<comments>
Review article for J. Comput. Theor. Nanosci., 27 pages, 15 figures
</comments>
<journal-ref>J. Comput. Theor. Nanosci. 5, 422-448 (2008)</journal-ref>

</arXiv>
</metadata>
</record>
<record>
<header>
<identifier>oai:arXiv.org:0706.0751</identifier>
<datestamp>2015-01-05</datestamp>
<setSpec>math</setSpec>
</header>
<metadata>
<arXiv xmlns="http://arxiv.org/OAI/arXiv/" xmlns:xsi="http://www.w3.org/2001/XMLSchema-instance" xsi:schemaLocation="http://arxiv.org/OAI/arXiv/ http://arxiv.org/OAI/arXiv.xsd">
<id>0706.0751</id>
<created>2007-06-05</created>
<updated>2014-12-31</updated>
<authors>
<author>
<keyname>Cheltsov</keyname>
<forenames>Ivan</forenames>
</author>
<author>
<keyname>Park</keyname>
<forenames>Jihun</forenames>
</author>
<author>
<keyname>Won</keyname>
<forenames>Joonyeong</forenames>
</author>
</authors>
<title>
Log canonical thresholds of certain Fano hypersurfaces
</title>
<categories>math.AG math.DG</categories>
<comments>25 pages</comments>
<msc-class>14J45, 14C20, 53C25</msc-class>
<journal-ref>Math. Z. 276 (2014), no.1-2, 51-79</journal-ref>
<doi>10.1007/s00209-013-1186-1</doi>
<license>
http://arxiv.org/licenses/nonexclusive-distrib/1.0/
</license>

</arXiv>
</metadata>
</record>
<record>
<header>
<identifier>oai:arXiv.org:0709.0702</identifier>
<datestamp>2015-01-27</datestamp>
<setSpec>math</setSpec>
</header>
<metadata>
<arXiv xmlns="http://arxiv.org/OAI/arXiv/" xmlns:xsi="http://www.w3.org/2001/XMLSchema-instance" xsi:schemaLocation="http://arxiv.org/OAI/arXiv/ http://arxiv.org/OAI/arXiv.xsd">
<id>0709.0702</id>
<created>2007-09-05</created>
<authors>
<author>
<keyname>Filonenko</keyname>
<forenames>D. O.</forenames>
</author>
<author>
<keyname>Finkelshtein</keyname>
<forenames>D. L.</forenames>
</author>
<author>
<keyname>Kondratiev</keyname>
<forenames>Yu. G.</forenames>
</author>
</authors>
<title>
On two-component contact model in continuum with one independent component
</title>
<categories>math-ph math.CA math.DS math.MP</categories>
<comments>25 pages</comments>
<msc-class>60K35, 82C22 (Primary) 60J75, 60J80 (Secondary)</msc-class>
<journal-ref>
Methods of Functional Analysis and Topology, 2008, 14(3), p. 209-228
</journal-ref>

</arXiv>
</metadata>
</record>
<record>
<header>
<identifier>oai:arXiv.org:0710.3882</identifier>
<datestamp>2015-01-27</datestamp>
<setSpec>math</setSpec>
</header>
<metadata>
<arXiv xmlns="http://arxiv.org/OAI/arXiv/" xmlns:xsi="http://www.w3.org/2001/XMLSchema-instance" xsi:schemaLocation="http://arxiv.org/OAI/arXiv/ http://arxiv.org/OAI/arXiv.xsd">
<id>0710.3882</id>
<created>2007-10-20</created>
<authors>
<author>
<keyname>Dudek</keyname>
<forenames>Wieslaw A.</forenames>
</author>
</authors>
<title>
Special types of intuitionistic fuzzy left h-ideals of hemirings
</title>
<categories>math.RA</categories>
<comments>6 pages</comments>
<journal-ref>Soft Computing 12 (2008), 359-364</journal-ref>
<doi>10.1007/s00500-007-0169-8</doi>

</arXiv>
</metadata>
</record>
<record>
<header>
<identifier>oai:arXiv.org:0710.3887</identifier>
<datestamp>2015-01-27</datestamp>
<setSpec>math</setSpec>
</header>
<metadata>
<arXiv xmlns="http://arxiv.org/OAI/arXiv/" xmlns:xsi="http://www.w3.org/2001/XMLSchema-instance" xsi:schemaLocation="http://arxiv.org/OAI/arXiv/ http://arxiv.org/OAI/arXiv.xsd">
<id>0710.3887</id>
<created>2007-10-20</created>
<authors>
<author>
<keyname>Zhang</keyname>
<forenames>Xiaohong</forenames>
</author>
<author>
<keyname>Qin</keyname>
<forenames>Keyun</forenames>
</author>
<author>
<keyname>Dudek</keyname>
<forenames>Wieslaw A.</forenames>
</author>
</authors>
<title>
Ultra LI-ideals in lattice implication algebras and MTL-algebras
</title>
<categories>math.LO math.GM</categories>
<journal-ref>Czechoslovak Math. J. 57(132) (2007), 591--605</journal-ref>

</arXiv>
</metadata>
</record>
<record>
<header>
<identifier>oai:arXiv.org:0712.1286</identifier>
<datestamp>2015-01-14</datestamp>
<setSpec>math</setSpec>
</header>
<metadata>
<arXiv xmlns="http://arxiv.org/OAI/arXiv/" xmlns:xsi="http://www.w3.org/2001/XMLSchema-instance" xsi:schemaLocation="http://arxiv.org/OAI/arXiv/ http://arxiv.org/OAI/arXiv.xsd">
<id>0712.1286</id>
<created>2007-12-08</created>
<authors>
<author>
<keyname>Heim</keyname>
<forenames>Bernhard</forenames>
</author>
</authors>
<title>Miyawaki's $F_{12}$ Spinor L-function Conjecture</title>
<categories>math.NT math.RT</categories>
<comments>13 pages</comments>
<msc-class>11F</msc-class>
<journal-ref>Kyoto J. Math. 52, no. 4 (2012), 817-828</journal-ref>
<doi>10.1215/21562261-1728875</doi>

</arXiv>
</metadata>
</record>
<record>
<header>
<identifier>oai:arXiv.org:0712.1401</identifier>
<datestamp>2015-01-27</datestamp>
<setSpec>math</setSpec>
</header>
<metadata>
<arXiv xmlns="http://arxiv.org/OAI/arXiv/" xmlns:xsi="http://www.w3.org/2001/XMLSchema-instance" xsi:schemaLocation="http://arxiv.org/OAI/arXiv/ http://arxiv.org/OAI/arXiv.xsd">
<id>0712.1401</id>
<created>2007-12-10</created>
<authors>
<author>
<keyname>Finkelshtein</keyname>
<forenames>D. L.</forenames>
</author>
</authors>
<title>Measures on two-component configuration spaces</title>
<categories>math-ph math.MP math.PR</categories>
<msc-class>82B21, 28A35</msc-class>
<journal-ref>Condensed Matter Physics, 2009, 12(1), p. 5-18</journal-ref>

</arXiv>
</metadata>
</record>
<record>
<header>
<identifier>oai:arXiv.org:0801.2198</identifier>
<datestamp>2015-01-14</datestamp>
<setSpec>math</setSpec>
</header>
<metadata>
<arXiv xmlns="http://arxiv.org/OAI/arXiv/" xmlns:xsi="http://www.w3.org/2001/XMLSchema-instance" xsi:schemaLocation="http://arxiv.org/OAI/arXiv/ http://arxiv.org/OAI/arXiv.xsd">
<id>0801.2198</id>
<created>2008-01-14</created>
<updated>2009-10-25</updated>
<authors>
<author>
<keyname>Fujino</keyname>
<forenames>Osamu</forenames>
</author>
</authors>
<title>Theory of non-lc ideal sheaves -basic properties-</title>
<categories>math.AG</categories>
<comments>
21 pages; v2: mistakes were corrected, v3: the proof of the main theorem was revised, v4: minor modifications, v5: minor revision following referee's comments
</comments>
<msc-class>14E15; 14E30</msc-class>
<journal-ref>Kyoto J. Math. 50, no. 2 (2010), 225-245</journal-ref>
<doi>10.1215/0023608X-2009-011</doi>
<license>
http://arxiv.org/licenses/nonexclusive-distrib/1.0/
</license>

</arXiv>
</metadata>
</record>
<record>
<header>
<identifier>oai:arXiv.org:0801.2456</identifier>
<datestamp>2015-01-05</datestamp>
<setSpec>math</setSpec>
</header>
<metadata>
<arXiv xmlns="http://arxiv.org/OAI/arXiv/" xmlns:xsi="http://www.w3.org/2001/XMLSchema-instance" xsi:schemaLocation="http://arxiv.org/OAI/arXiv/ http://arxiv.org/OAI/arXiv.xsd">
<id>0801.2456</id>
<created>2008-01-16</created>
<authors>
<author>
<keyname>Boucheron</keyname>
<forenames>Stéphane</forenames>
<affiliation>PMA</affiliation>
</author>
<author>
<keyname>Garivier</keyname>
<forenames>Aurélien</forenames>
<affiliation>LM-Orsay</affiliation>
</author>
<author>
<keyname>Gassiat</keyname>
<forenames>Elisabeth</forenames>
<affiliation>LM-Orsay</affiliation>
</author>
</authors>
<title>Coding on countably infinite alphabets</title>
<categories>math.ST stat.TH</categories>
<comments>33 pages</comments>
<proxy>ccsd hal-00121892</proxy>
<msc-class>62B10, 68P30, 94A29</msc-class>
<journal-ref>
Information Theory, IEEE Transactions on (Volume:55 , Issue: 1 ) 358 - 373 Jan. 2009
</journal-ref>
<doi>10.1109/TIT.2008.2008150</doi>

</arXiv>
</metadata>
</record>
<record>
<header>
<identifier>oai:arXiv.org:0801.2456</identifier>
<datestamp>2015-01-05</datestamp>
<setSpec>math</setSpec>
</header>
<metadata>
<arXiv xmlns="http://arxiv.org/OAI/arXiv/" xmlns:xsi="http://www.w3.org/2001/XMLSchema-instance" xsi:schemaLocation="http://arxiv.org/OAI/arXiv/ http://arxiv.org/OAI/arXiv.xsd">
<id>0801.2456</id>
<created>2008-01-16</created>
<authors>
<author>
<keyname>Boucheron</keyname>
<forenames>Stéphane</forenames>
<affiliation>PMA</affiliation>
</author>
<author>
<keyname>Garivier</keyname>
<forenames>Aurélien</forenames>
<affiliation>LM-Orsay</affiliation>
</author>
<author>
<keyname>Gassiat</keyname>
<forenames>Elisabeth</forenames>
<affiliation>LM-Orsay</affiliation>
</author>
</authors>
<title>Coding on countably infinite alphabets</title>
<categories>math.ST stat.TH</categories>
<comments>33 pages</comments>
<proxy>ccsd hal-00121892</proxy>
<msc-class>62B10, 68P30, 94A29</msc-class>
<journal-ref>
Information Theory, IEEE Transactions on (Volume:55 , Issue: 1 ) 358 - 373 Jan. 2009
</journal-ref>
<doi>10.1109/TIT.2008.2008150</doi>

</arXiv>
</metadata>
</record>
<resumptionToken cursor="0" completeListSize="2704">1677995|1001</resumptionToken>
</ListRecords>